sj,11
sj,10
sj,12
sj,14
sj,13
sj,12
sj,21
sj,12
sj,14
sj,29
sj,23
sj,19
sj,43
sj,45
sj,37
sj,44
sj,34
sj,61
sj,60
sj,55
sj,40
sj,64
sj,60
sj,69
sj,53
sj,77
sj,69
sj,67
sj,83
sj,56
sj,52
sj,38
sj,57
sj,53
sj,36
sj,23
sj,31
sj,31
sj,29
sj,23
sj,20
sj,12
sj,14
sj,19
sj,11
sj,11
sj,11
sj,16
sj,16
sj,19
sj,15
sj,13
sj,12
sj,13
sj,16
sj,15
sj,12
sj,13
sj,12
sj,16
sj,24
sj,26
sj,25
sj,21
sj,23
sj,21
sj,37
sj,40
sj,41
sj,45
sj,59
sj,95
sj,72
sj,80
sj,80
sj,82
sj,80
sj,65
sj,69
sj,87
sj,90
sj,63
sj,79
sj,63
sj,85
sj,101
sj,96
sj,76
sj,57
sj,40
sj,28
sj,33
sj,28
sj,23
sj,26
sj,22
sj,22
sj,22
sj,20
sj,14
sj,12
sj,16
sj,11
sj,20
sj,20
sj,24
sj,34
sj,16
sj,19
sj,44
sj,36
sj,25
sj,19
sj,22
sj,39
sj,53
sj,28
sj,39
sj,46
sj,51
sj,65
sj,58
sj,34
sj,34
sj,63
sj,73
sj,42
sj,34
sj,66
sj,84
sj,57
sj,76
sj,69
sj,73
sj,56
sj,62
sj,45
sj,50
sj,54
sj,51
sj,36
sj,35
sj,31
sj,18
sj,18
sj,14
sj,9
sj,18
sj,12
sj,13
sj,7
sj,11
sj,13
sj,13
sj,11
sj,15
sj,18
sj,13
sj,11
sj,13
sj,11
sj,12
sj,16
sj,28
sj,18
sj,17
sj,23
sj,19
sj,19
sj,25
sj,18
sj,33
sj,23
sj,40
sj,48
sj,50
sj,40
sj,46
sj,36
sj,56
sj,43
sj,52
sj,58
sj,51
sj,39
sj,58
sj,66
sj,29
sj,47
sj,63
sj,47
sj,46
sj,26
sj,32
sj,26
sj,25
sj,26
sj,18
sj,17
sj,16
sj,14
sj,15
sj,18
sj,13
sj,14
sj,10
sj,10
sj,11
sj,15
sj,11
sj,19
sj,17
sj,15
sj,18
sj,16
sj,20
sj,27
sj,23
sj,22
sj,40
sj,23
sj,40
sj,35
sj,36
sj,73
sj,86
sj,103
sj,116
sj,86
sj,54
sj,70
sj,59
sj,69
sj,57
sj,60
sj,75
sj,48
sj,66
sj,91
sj,97
sj,101
sj,71
sj,64
sj,44
sj,47
sj,66
sj,48
sj,46
sj,36
sj,33
sj,27
sj,26
sj,18
sj,26
sj,18
sj,14
sj,12
sj,18
sj,13
sj,13
