city,year,weekofyear,total_cases
sj,2008,18,8
sj,2008,19,6
sj,2008,20,5
sj,2008,21,8
sj,2008,22,8
sj,2008,23,9
sj,2008,24,10
sj,2008,25,11
sj,2008,26,11
sj,2008,27,21
sj,2008,28,18
sj,2008,29,24
sj,2008,30,25
sj,2008,31,54
sj,2008,32,41
sj,2008,33,56
sj,2008,34,38
sj,2008,35,50
sj,2008,36,71
sj,2008,37,67
sj,2008,38,38
sj,2008,39,76
sj,2008,40,46
sj,2008,41,62
sj,2008,42,41
sj,2008,43,53
sj,2008,44,44
sj,2008,45,39
sj,2008,46,59
sj,2008,47,47
sj,2008,48,46
sj,2008,49,33
sj,2008,50,28
sj,2008,51,57
sj,2008,52,30
sj,2009,1,32
sj,2009,2,35
sj,2009,3,37
sj,2009,4,34
sj,2009,5,18
sj,2009,6,19
sj,2009,7,13
sj,2009,8,8
sj,2009,9,8
sj,2009,10,6
sj,2009,11,9
sj,2009,12,8
sj,2009,13,14
sj,2009,14,12
sj,2009,15,14
sj,2009,16,11
sj,2009,17,9
sj,2009,18,11
sj,2009,19,5
sj,2009,20,7
sj,2009,21,8
sj,2009,22,5
sj,2009,23,7
sj,2009,24,9
sj,2009,25,11
sj,2009,26,20
sj,2009,27,16
sj,2009,28,27
sj,2009,29,19
sj,2009,30,20
sj,2009,31,20
sj,2009,32,30
sj,2009,33,33
sj,2009,34,47
sj,2009,35,44
sj,2009,36,58
sj,2009,37,97
sj,2009,38,61
sj,2009,39,100
sj,2009,40,67
sj,2009,41,57
sj,2009,42,77
sj,2009,43,51
sj,2009,44,76
sj,2009,45,88
sj,2009,46,66
sj,2009,47,57
sj,2009,48,54
sj,2009,49,57
sj,2009,50,84
sj,2009,51,89
sj,2009,52,83
sj,2010,53,61
sj,2010,1,68
sj,2010,2,54
sj,2010,3,25
sj,2010,4,34
sj,2010,5,39
sj,2010,6,38
sj,2010,7,25
sj,2010,8,19
sj,2010,9,21
sj,2010,10,23
sj,2010,11,19
sj,2010,12,12
sj,2010,13,13
sj,2010,14,13
sj,2010,15,8
sj,2010,16,12
sj,2010,17,16
sj,2010,18,12
sj,2010,19,22
sj,2010,20,15
sj,2010,21,21
sj,2010,22,22
sj,2010,23,31
sj,2010,24,19
sj,2010,25,18
sj,2010,26,20
sj,2010,27,33
sj,2010,28,40
sj,2010,29,38
sj,2010,30,25
sj,2010,31,33
sj,2010,32,59
sj,2010,33,56
sj,2010,34,56
sj,2010,35,30
sj,2010,36,24
sj,2010,37,44
sj,2010,38,42
sj,2010,39,39
sj,2010,40,24
sj,2010,41,47
sj,2010,42,46
sj,2010,43,57
sj,2010,44,49
sj,2010,45,52
sj,2010,46,51
sj,2010,47,55
sj,2010,48,42
sj,2010,49,37
sj,2010,50,40
sj,2010,51,48
sj,2011,52,51
sj,2011,1,36
sj,2011,2,29
sj,2011,3,31
sj,2011,4,20
sj,2011,5,5
sj,2011,6,10
sj,2011,7,5
sj,2011,8,17
sj,2011,9,9
sj,2011,10,16
sj,2011,11,8
sj,2011,12,9
sj,2011,13,18
sj,2011,14,11
sj,2011,15,12
sj,2011,16,11
sj,2011,17,10
sj,2011,18,10
sj,2011,19,4
sj,2011,20,6
sj,2011,21,8
sj,2011,22,9
sj,2011,23,11
sj,2011,24,20
sj,2011,25,21
sj,2011,26,20
sj,2011,27,18
sj,2011,28,17
sj,2011,29,19
sj,2011,30,14
sj,2011,31,16
sj,2011,32,22
sj,2011,33,16
sj,2011,34,31
sj,2011,35,37
sj,2011,36,43
sj,2011,37,55
sj,2011,38,39
sj,2011,39,32
sj,2011,40,55
sj,2011,41,46
sj,2011,42,26
sj,2011,43,39
sj,2011,44,64
sj,2011,45,33
sj,2011,46,55
sj,2011,47,81
sj,2011,48,35
sj,2011,49,49
sj,2011,50,52
sj,2011,51,49
sj,2012,52,41
sj,2012,1,39
sj,2012,2,31
sj,2012,3,27
sj,2012,4,37
sj,2012,5,33
sj,2012,6,19
sj,2012,7,12
sj,2012,8,16
sj,2012,9,16
sj,2012,10,17
sj,2012,11,18
sj,2012,12,11
sj,2012,13,11
sj,2012,14,9
sj,2012,15,9
sj,2012,16,8
sj,2012,17,12
sj,2012,18,11
sj,2012,19,12
sj,2012,20,12
sj,2012,21,15
sj,2012,22,15
sj,2012,23,19
sj,2012,24,16
sj,2012,25,20
sj,2012,26,30
sj,2012,27,25
sj,2012,28,46
sj,2012,29,32
sj,2012,30,36
sj,2012,31,43
sj,2012,32,45
sj,2012,33,66
sj,2012,34,105
sj,2012,35,139
sj,2012,36,140
sj,2012,37,102
sj,2012,38,54
sj,2012,39,94
sj,2012,40,72
sj,2012,41,72
sj,2012,42,63
sj,2012,43,45
sj,2012,44,114
sj,2012,45,59
sj,2012,46,85
sj,2012,47,87
sj,2012,48,112
sj,2012,49,103
sj,2012,50,61
sj,2012,51,65
sj,2013,1,39
sj,2013,2,77
sj,2013,3,70
sj,2013,4,84
sj,2013,5,65
sj,2013,6,56
sj,2013,7,37
sj,2013,8,29
sj,2013,9,26
sj,2013,10,24
sj,2013,11,16
sj,2013,12,17
sj,2013,13,13
sj,2013,14,10
sj,2013,15,13
sj,2013,16,9
sj,2013,17,10
iq,2010,26,7
iq,2010,27,4
iq,2010,28,7
iq,2010,29,4
iq,2010,30,3
iq,2010,31,6
iq,2010,32,5
iq,2010,33,5
iq,2010,34,5
iq,2010,35,7
iq,2010,36,6
iq,2010,37,5
iq,2010,38,7
iq,2010,39,5
iq,2010,40,6
iq,2010,41,6
iq,2010,42,8
iq,2010,43,11
iq,2010,44,18
iq,2010,45,8
iq,2010,46,9
iq,2010,47,12
iq,2010,48,12
iq,2010,49,13
iq,2010,50,10
iq,2010,51,6
iq,2011,52,7
iq,2011,1,6
iq,2011,2,9
iq,2011,3,7
iq,2011,4,5
iq,2011,5,6
iq,2011,6,7
iq,2011,7,9
iq,2011,8,9
iq,2011,9,11
iq,2011,10,8
iq,2011,11,8
iq,2011,12,10
iq,2011,13,10
iq,2011,14,10
iq,2011,15,8
iq,2011,16,8
iq,2011,17,9
iq,2011,18,11
iq,2011,19,4
iq,2011,20,6
iq,2011,21,6
iq,2011,22,6
iq,2011,23,4
iq,2011,24,5
iq,2011,25,3
iq,2011,26,4
iq,2011,27,4
iq,2011,28,3
iq,2011,29,4
iq,2011,30,4
iq,2011,31,4
iq,2011,32,4
iq,2011,33,3
iq,2011,34,4
iq,2011,35,3
iq,2011,36,4
iq,2011,37,5
iq,2011,38,5
iq,2011,39,6
iq,2011,40,6
iq,2011,41,8
iq,2011,42,13
iq,2011,43,7
iq,2011,44,6
iq,2011,45,8
iq,2011,46,10
iq,2011,47,10
iq,2011,48,10
iq,2011,49,11
iq,2011,50,8
iq,2011,51,8
iq,2012,52,10
iq,2012,1,8
iq,2012,2,7
iq,2012,3,7
iq,2012,4,6
iq,2012,5,8
iq,2012,6,10
iq,2012,7,7
iq,2012,8,7
iq,2012,9,6
iq,2012,10,8
iq,2012,11,6
iq,2012,12,5
iq,2012,13,9
iq,2012,14,6
iq,2012,15,9
iq,2012,16,9
iq,2012,17,7
iq,2012,18,8
iq,2012,19,4
iq,2012,20,6
iq,2012,21,4
iq,2012,22,4
iq,2012,23,5
iq,2012,24,3
iq,2012,25,4
iq,2012,26,4
iq,2012,27,4
iq,2012,28,3
iq,2012,29,5
iq,2012,30,2
iq,2012,31,3
iq,2012,32,3
iq,2012,33,3
iq,2012,34,4
iq,2012,35,4
iq,2012,36,4
iq,2012,37,4
iq,2012,38,4
iq,2012,39,5
iq,2012,40,3
iq,2012,41,9
iq,2012,42,7
iq,2012,43,10
iq,2012,44,9
iq,2012,45,8
iq,2012,46,12
iq,2012,47,14
iq,2012,48,16
iq,2012,49,10
iq,2012,50,12
iq,2012,51,12
iq,2013,1,9
iq,2013,2,5
iq,2013,3,6
iq,2013,4,9
iq,2013,5,7
iq,2013,6,11
iq,2013,7,8
iq,2013,8,10
iq,2013,9,7
iq,2013,10,9
iq,2013,11,11
iq,2013,12,14
iq,2013,13,12
iq,2013,14,9
iq,2013,15,8
iq,2013,16,11
iq,2013,17,8
iq,2013,18,3
iq,2013,19,9
iq,2013,20,8
iq,2013,21,6
iq,2013,22,6
iq,2013,23,6
iq,2013,24,4
iq,2013,25,4
iq,2013,26,3
