city,year,weekofyear,total_cases
sj,2008,18,18
sj,2008,19,18
sj,2008,20,18
sj,2008,21,68
sj,2008,22,16
sj,2008,23,18
sj,2008,24,22
sj,2008,25,60
sj,2008,26,19
sj,2008,27,19
sj,2008,28,18
sj,2008,29,19
sj,2008,30,20
sj,2008,31,20
sj,2008,32,31
sj,2008,33,43
sj,2008,34,27
sj,2008,35,37
sj,2008,36,84
sj,2008,37,57
sj,2008,38,38
sj,2008,39,31
sj,2008,40,35
sj,2008,41,23
sj,2008,42,27
sj,2008,43,23
sj,2008,44,17
sj,2008,45,23
sj,2008,46,41
sj,2008,47,24
sj,2008,48,21
sj,2008,49,17
sj,2008,50,17
sj,2008,51,17
sj,2008,52,17
sj,2009,1,17
sj,2009,2,17
sj,2009,3,17
sj,2009,4,17
sj,2009,5,20
sj,2009,6,17
sj,2009,7,17
sj,2009,8,17
sj,2009,9,17
sj,2009,10,17
sj,2009,11,17
sj,2009,12,17
sj,2009,13,17
sj,2009,14,17
sj,2009,15,17
sj,2009,16,16
sj,2009,17,15
sj,2009,18,16
sj,2009,19,16
sj,2009,20,23
sj,2009,21,42
sj,2009,22,29
sj,2009,23,18
sj,2009,24,18
sj,2009,25,20
sj,2009,26,26
sj,2009,27,51
sj,2009,28,28
sj,2009,29,27
sj,2009,30,29
sj,2009,31,30
sj,2009,32,29
sj,2009,33,24
sj,2009,34,25
sj,2009,35,36
sj,2009,36,38
sj,2009,37,40
sj,2009,38,34
sj,2009,39,23
sj,2009,40,36
sj,2009,41,36
sj,2009,42,38
sj,2009,43,39
sj,2009,44,27
sj,2009,45,18
sj,2009,46,18
sj,2009,47,26
sj,2009,48,22
sj,2009,49,26
sj,2009,50,18
sj,2009,51,22
sj,2009,52,20
sj,2010,53,20
sj,2010,1,21
sj,2010,2,18
sj,2010,3,21
sj,2010,4,20
sj,2010,5,17
sj,2010,6,16
sj,2010,7,18
sj,2010,8,18
sj,2010,9,18
sj,2010,10,23
sj,2010,11,18
sj,2010,12,100
sj,2010,13,16
sj,2010,14,15
sj,2010,15,16
sj,2010,16,23
sj,2010,17,25
sj,2010,18,32
sj,2010,19,19
sj,2010,20,19
sj,2010,21,22
sj,2010,22,61
sj,2010,23,87
sj,2010,24,34
sj,2010,25,29
sj,2010,26,35
sj,2010,27,71
sj,2010,28,104
sj,2010,29,35
sj,2010,30,42
sj,2010,31,30
sj,2010,32,102
sj,2010,33,77
sj,2010,34,108
sj,2010,35,90
sj,2010,36,95
sj,2010,37,62
sj,2010,38,33
sj,2010,39,37
sj,2010,40,33
sj,2010,41,100
sj,2010,42,30
sj,2010,43,107
sj,2010,44,20
sj,2010,45,25
sj,2010,46,22
sj,2010,47,16
sj,2010,48,17
sj,2010,49,18
sj,2010,50,20
sj,2010,51,16
sj,2011,52,17
sj,2011,1,18
sj,2011,2,19
sj,2011,3,19
sj,2011,4,17
sj,2011,5,17
sj,2011,6,17
sj,2011,7,17
sj,2011,8,17
sj,2011,9,17
sj,2011,10,17
sj,2011,11,17
sj,2011,12,17
sj,2011,13,17
sj,2011,14,17
sj,2011,15,17
sj,2011,16,17
sj,2011,17,16
sj,2011,18,22
sj,2011,19,17
sj,2011,20,21
sj,2011,21,23
sj,2011,22,25
sj,2011,23,26
sj,2011,24,70
sj,2011,25,66
sj,2011,26,36
sj,2011,27,42
sj,2011,28,45
sj,2011,29,25
sj,2011,30,63
sj,2011,31,40
sj,2011,32,62
sj,2011,33,34
sj,2011,34,73
sj,2011,35,34
sj,2011,36,25
sj,2011,37,30
sj,2011,38,31
sj,2011,39,34
sj,2011,40,40
sj,2011,41,21
sj,2011,42,19
sj,2011,43,30
sj,2011,44,24
sj,2011,45,21
sj,2011,46,21
sj,2011,47,18
sj,2011,48,22
sj,2011,49,17
sj,2011,50,22
sj,2011,51,17
sj,2012,52,17
sj,2012,1,17
sj,2012,2,17
sj,2012,3,17
sj,2012,4,17
sj,2012,5,17
sj,2012,6,17
sj,2012,7,17
sj,2012,8,17
sj,2012,9,16
sj,2012,10,17
sj,2012,11,17
sj,2012,12,17
sj,2012,13,17
sj,2012,14,19
sj,2012,15,19
sj,2012,16,17
sj,2012,17,16
sj,2012,18,18
sj,2012,19,22
sj,2012,20,19
sj,2012,21,20
sj,2012,22,17
sj,2012,23,25
sj,2012,24,55
sj,2012,25,41
sj,2012,26,38
sj,2012,27,37
sj,2012,28,21
sj,2012,29,27
sj,2012,30,39
sj,2012,31,22
sj,2012,32,37
sj,2012,33,32
sj,2012,34,29
sj,2012,35,24
sj,2012,36,20
sj,2012,37,42
sj,2012,38,43
sj,2012,39,36
sj,2012,40,29
sj,2012,41,22
sj,2012,42,31
sj,2012,43,27
sj,2012,44,43
sj,2012,45,22
sj,2012,46,19
sj,2012,47,21
sj,2012,48,18
sj,2012,49,17
sj,2012,50,15
sj,2012,51,16
sj,2013,1,16
sj,2013,2,17
sj,2013,3,17
sj,2013,4,17
sj,2013,5,17
sj,2013,6,17
sj,2013,7,17
sj,2013,8,17
sj,2013,9,17
sj,2013,10,16
sj,2013,11,17
sj,2013,12,17
sj,2013,13,15
sj,2013,14,18
sj,2013,15,16
sj,2013,16,15
sj,2013,17,17
iq,2010,26,5
iq,2010,27,2
iq,2010,28,6
iq,2010,29,2
iq,2010,30,2
iq,2010,31,2
iq,2010,32,2
iq,2010,33,2
iq,2010,34,1
iq,2010,35,2
iq,2010,36,2
iq,2010,37,2
iq,2010,38,3
iq,2010,39,2
iq,2010,40,2
iq,2010,41,3
iq,2010,42,7
iq,2010,43,8
iq,2010,44,7
iq,2010,45,5
iq,2010,46,8
iq,2010,47,7
iq,2010,48,7
iq,2010,49,5
iq,2010,50,8
iq,2010,51,2
iq,2011,52,3
iq,2011,1,2
iq,2011,2,8
iq,2011,3,4
iq,2011,4,2
iq,2011,5,3
iq,2011,6,6
iq,2011,7,9
iq,2011,8,8
iq,2011,9,7
iq,2011,10,8
iq,2011,11,6
iq,2011,12,8
iq,2011,13,9
iq,2011,14,7
iq,2011,15,7
iq,2011,16,7
iq,2011,17,5
iq,2011,18,9
iq,2011,19,2
iq,2011,20,2
iq,2011,21,4
iq,2011,22,2
iq,2011,23,3
iq,2011,24,3
iq,2011,25,2
iq,2011,26,3
iq,2011,27,3
iq,2011,28,2
iq,2011,29,2
iq,2011,30,2
iq,2011,31,2
iq,2011,32,2
iq,2011,33,2
iq,2011,34,2
iq,2011,35,2
iq,2011,36,2
iq,2011,37,2
iq,2011,38,2
iq,2011,39,4
iq,2011,40,3
iq,2011,41,7
iq,2011,42,8
iq,2011,43,6
iq,2011,44,10
iq,2011,45,7
iq,2011,46,8
iq,2011,47,8
iq,2011,48,8
iq,2011,49,7
iq,2011,50,6
iq,2011,51,7
iq,2012,52,7
iq,2012,1,7
iq,2012,2,5
iq,2012,3,4
iq,2012,4,2
iq,2012,5,8
iq,2012,6,7
iq,2012,7,5
iq,2012,8,2
iq,2012,9,2
iq,2012,10,6
iq,2012,11,2
iq,2012,12,2
iq,2012,13,8
iq,2012,14,4
iq,2012,15,18
iq,2012,16,7
iq,2012,17,7
iq,2012,18,6
iq,2012,19,2
iq,2012,20,5
iq,2012,21,2
iq,2012,22,2
iq,2012,23,2
iq,2012,24,2
iq,2012,25,1
iq,2012,26,2
iq,2012,27,2
iq,2012,28,2
iq,2012,29,3
iq,2012,30,4
iq,2012,31,1
iq,2012,32,2
iq,2012,33,2
iq,2012,34,3
iq,2012,35,1
iq,2012,36,1
iq,2012,37,1
iq,2012,38,1
iq,2012,39,3
iq,2012,40,2
iq,2012,41,17
iq,2012,42,3
iq,2012,43,7
iq,2012,44,7
iq,2012,45,7
iq,2012,46,7
iq,2012,47,3
iq,2012,48,4
iq,2012,49,7
iq,2012,50,8
iq,2012,51,4
iq,2013,1,9
iq,2013,2,2
iq,2013,3,4
iq,2013,4,7
iq,2013,5,4
iq,2013,6,7
iq,2013,7,8
iq,2013,8,7
iq,2013,9,6
iq,2013,10,12
iq,2013,11,7
iq,2013,12,4
iq,2013,13,7
iq,2013,14,7
iq,2013,15,7
iq,2013,16,7
iq,2013,17,7
iq,2013,18,2
iq,2013,19,19
iq,2013,20,11
iq,2013,21,4
iq,2013,22,2
iq,2013,23,4
iq,2013,24,2
iq,2013,25,2
iq,2013,26,3
